Statistical Programming for the Social Sciences Using R - 8 Web Scraping and Map Making
…
At this point, it would be a matter of storing this text into an object and then starting the very-not-fun, but frequently necessary job of cleaning it. We haven’t deal much with text data in this course and so if you find yourself in the position of needing to clean large amounts of text, I recommend reading and working through Chapters 14 and 15 of Wickham et al.’s R for Data Science.

Luckily for us though, New York State’s dispensary list comes in a standard HTML table (enclosed with <table> and </table>) and rvest has a function specifically for it: html_table(). First, we need to specify the name of the tag that starts the table (in this case, “table”) in html_elements(), then we need to pipe the result into the html_table() function.

# Read the table from the HTML
html %>%
  html_elements("table") %>%
  html_table() -> dispense

# Display the results
dispense

[[1]]
# A tibble: 101 × 5
   `Entity Name`                     Address            City  `Zip Code` Website
   <chr>                             <chr>              <chr> <chr>      <chr>  
 1 1. Gotham Buds                    248 W 125th St     New … 10027      gotham…
 2 2. Housing Works Cannabis, LLC    750 Broadway       New … 10003      hwcann…
 3 3. Smacked Village                144 Bleecker St    New … 10012      getsma…
 4 4. Just Breathe                   75 Court St        Bing… 13901      justbr…
 5 5. The Travel Agency Union Square 835 Broadway       New … 10003      thetra…
 6 6. William Jane Corporation       119-121 E State St Itha… 14850      willia…
 7 7. Good Grades, LLC               162-03 Jamaica Ave Jama… 11432      goodgr…
 8 8. Upstate Canna Co               1613 Union St      Sche… 12309      upstat…
 9 9. Dazed                          33 Union Sq. W     New … 10003      dazed.…
10 10. Legacy Dispensary             1839 Central Ave   Alba… 12205      legacy…
# ℹ 91 more rows
…
[1] "entity_name" "address"     "city"        "zip_code"    "website"    

The second issue is that the number of the listed dispensary is in the “Entity Name” column instead of in it’s own column. We can fix this using a function from tidyr called separate(). Separate, well, separates a column into multiple columns based on some criteria. In our case, we want to separate the column entity_name into two columns, one with the same name (which contains only the name of the dispensary) and another with the number that was previously in front of that name.

To use separate(), We specify the names of the columns in the into= argument (telling it which columns to put the values into) and the separation criteria in the sep= argument. The separation criteria we need to provide here is essentially a delimiter (which we saw in section 5.5). It tells us where one value begins and the other ends. Let’s try using a blank space as the delimiter, since there is a blank space between the number and entity_name.

# Separate the first two columns using a blank space as the delimiter
dispense_tb %>%
  separate(entity_name,
           into = c("number", "entity_name"), 
           sep = " ", 
           extra = "merge")

# A tibble: 101 × 6
   number entity_name                    address          city  zip_code website
   <chr>  <chr>                          <chr>            <chr> <chr>    <chr>  
 1 1.     Gotham Buds                    248 W 125th St   New … 10027    gotham…
 2 2.     Housing Works Cannabis, LLC    750 Broadway     New … 10003    hwcann…
 3 3.     Smacked Village                144 Bleecker St  New … 10012    getsma…
 4 4.     Just Breathe                   75 Court St      Bing… 13901    justbr…
 5 5.     The Travel Agency Union Square 835 Broadway     New … 10003    thetra…
 6 6.     William Jane Corporation       119-121 E State… Itha… 14850    willia…
 7 7.     Good Grades, LLC               162-03 Jamaica … Jama… 11432    goodgr…
 8 8.     Upstate Canna Co               1613 Union St    Sche… 12309    upstat…
 9 9.     Dazed                          33 Union Sq. W   New … 10003    dazed.…
10 10.    Legacy Dispensary              1839 Central Ave Alba… 12205    legacy…
# ℹ 91 more rows
…
The period, ., in regular expression, is a special character which means any single character (e.g., ‘a’ in the word ‘apple’ or ‘b’ in the word ‘banana’). So, we can’t use sep= "." in separate(), because otherwise it will interpret the argument as saying that the first character in the entity_name column is what we’d like to use to separate our columns. To avoid this, we need to use an escape character to tell the function that we want to search for an actual period instead of any character. In regular expression, the backslash, \, serves the escape character role. One last complication, in R, when using regular expression, we actually need to use two backslashes as an escape character. In other words, \\. in regular expression in R will represent a regular period: ..

Regular expression is a powerful tool for working with strings. Again, for more on working with this type of data, including the use of regular expression, read Chapters 14 and 15 of Wickham et al.

# Separate the first two columns using the period as a delimiter
dispense_tb %>%
  separate(entity_name,
           into = c("number", "entity_name"), 
           sep = "\\.", 
           extra = "merge") -> dispense_tb

# Display the results
dispense_tb

# A tibble: 101 × 6
   number entity_name                       address       city  zip_code website
   <chr>  <chr>                             <chr>         <chr> <chr>    <chr>  
 1 1      " Gotham Buds"                    248 W 125th … New … 10027    gotham…
 2 2      " Housing Works Cannabis, LLC"    750 Broadway  New … 10003    hwcann…
 3 3      " Smacked Village"                144 Bleecker… New … 10012    getsma…
 4 4      " Just Breathe"                   75 Court St   Bing… 13901    justbr…
 5 5      " The Travel Agency Union Square" 835 Broadway  New … 10003    thetra…
 6 6      " William Jane Corporation"       119-121 E St… Itha… 14850    willia…
 7 7      " Good Grades, LLC"               162-03 Jamai… Jama… 11432    goodgr…
 8 8      " Upstate Canna Co"               1613 Union St Sche… 12309    upstat…
 9 9      " Dazed"                          33 Union Sq.… New … 10003    dazed.…
10 10     " Legacy Dispensary"              1839 Central… Alba… 12205    legacy…
# ℹ 91 more rows
…
