Chapter 3 Summarizing Data with dplyr | Statistical Programming for the Social Sciences Using R
…
3.5 Selecting Columns

There are a lot of variables, 32 of them, in fact. Maybe we want to narrow in and look at just a few of them, like: id, sex, and religion. We can use the select() function to do this.

gss %>%                             # Take the GSS data AND THEN
  select(id, sex, religion)         # take just the ID, sex, and religion columns.

## # A tibble: 2,867 × 3
##       id sex    religion  
##    <dbl> <fct>  <fct>     
##  1     1 Male   None      
##  2     2 Male   None      
##  3     3 Male   Catholic  
##  4     4 Female Catholic  
##  5     5 Female None      
##  6     6 Female None      
##  7     7 Male   None      
##  8     8 Female Catholic  
##  9     9 Male   Protestant
## 10    10 Male   None      
## # ℹ 2,857 more rows
…
Now we have a new object containing our new tibble. If you inspect this new tibble and then decide that you don’t need or want it anymore, you can always get rid of it using the rm() function.9

view(gender_relig)
rm(gender_relig)

3.6 Grouping and Summarizing

Let’s say we want to get a table which shows the number of respondents by religious affiliation. There are other ways of doing this, but we’re going to use dplyr and the pipe operator.

To do this, we first have to tell R how we would like to group the data. Grouping doesn’t visibly change the data, but it prepares R to interpret our next commands according to the groups we specify. We’re going to group by the religion variable which contains the respondent’s religious affiliation.

gss %>%
  group_by(religion)

## # A tibble: 2,867 × 32
## # Groups:   religion [6]
##     year    id ballot       age childs sibs   degree race  sex   region income16
##    <dbl> <dbl> <labelled> <dbl>  <dbl> <labe> <fct>  <fct> <fct> <fct>  <fct>   
##  1  2016     1 1             47      3 2      Bache… White Male  New E… $170000…
##  2  2016     2 2             61      0 3      High … White Male  New E… $50000 …
##  3  2016     3 3             72      2 3      Bache… White Male  New E… $75000 …
##  4  2016     4 1             43      4 3      High … White Fema… New E… $170000…
##  5  2016     5 3             55      2 2      Gradu… White Fema… New E… $170000…
##  6  2016     6 2             53      2 2      Junio… White Fema… New E… $60000 …
##  7  2016     7 1             50      2 2      High … White Male  New E… $170000…
##  8  2016     8 3             23      3 6      High … Other Fema… Middl… $30000 …
##  9  2016     9 1             45      3 5      High … Black Male  Middl… $60000 …
## 10  2016    10 3             71      4 1      Junio… White Male  Middl… $60000 …
## # ℹ 2,857 more rows
## # ℹ 21 more variables: relig <fct>, marital <fct>, padeg <fct>, madeg <fct>,
## #   partyid <fct>, polviews <fct>, happy <fct>, partners <fct>, grass <fct>,
## #   zodiac <fct>, pres12 <labelled>, wtssall <dbl>, income_rc <fct>,
## #   agegrp <fct>, ageq <fct>, siblings <fct>, kids <fct>, religion <fct>,
## #   bigregion <fct>, partners_rc <fct>, obama <dbl>
…
