Chapter 3 Using the Tidyverse to Summarize | Statistical Programming for the Social Sciences Using R
…
Take a quick look at the data. You can use glimpse(), another dplyr function, to get a good look at it and you can look at it visually using view(). Typing in ?gss_sm (the original name of the data set from the package) will tell you what the variables are.

glimpse(gss)

As you might notice, there’s a wealth of data in here. You might also notice that the data is at the individual-level. In this data, each row represents a individual respondent and each column is a variable (or their response to a question).

3.3.3 Selecting Columns

Maybe I want to narrow in and look at just a few variables. I can use the select() function to do this.

gss %>%
  select(id, sex, religion)

## # A tibble: 2,867 × 3
##       id sex    religion  
##    <dbl> <fct>  <fct>     
##  1     1 Male   None      
##  2     2 Male   None      
##  3     3 Male   Catholic  
##  4     4 Female Catholic  
##  5     5 Female None      
##  6     6 Female None      
##  7     7 Male   None      
##  8     8 Female Catholic  
##  9     9 Male   Protestant
## 10    10 Male   None      
## # ℹ 2,857 more rows
…
