Statistical Programming for the Social Sciences Using R - 4 Visualizing with ggplot2
…
Now see whether you can find the minimum and maximum year for each country along with the number of times each country appears in the data.

Answer

gapminder %>%
  group_by(country) %>%
    summarize(min_year = min(year),
              max_year = max(year),
              n = n())

# A tibble: 142 × 4
   country     min_year max_year     n
   <fct>          <int>    <int> <int>
 1 Afghanistan     1952     2007    12
 2 Albania         1952     2007    12
 3 Algeria         1952     2007    12
 4 Angola          1952     2007    12
 5 Argentina       1952     2007    12
 6 Australia       1952     2007    12
 7 Austria         1952     2007    12
 8 Bahrain         1952     2007    12
 9 Bangladesh      1952     2007    12
10 Belgium         1952     2007    12
# ℹ 132 more rows
…
