Statistical Programming for the Social Sciences Using R - 5 Workflows and Wrangling
…
To read the actual data set into R, now all we need to do is put this here function inside of read_csv().

read_csv(file = here("data","billionaires_2020-2023.csv"))

Rows: 2640 Columns: 13
── Column specification ────────────────────────────────────────────────────────
Delimiter: ","
chr (8): name, gender, country, countrycode, region, marital, residence_coun...
dbl (5): id, 2020, 2021, 2022, 2023

ℹ Use `spec()` to retrieve the full column specification for this data.
ℹ Specify the column types or set `show_col_types = FALSE` to quiet this message.

# A tibble: 2,640 × 13
      id name        gender country countrycode region marital residence_country
   <dbl> <chr>       <chr>  <chr>   <chr>       <chr>  <chr>   <chr>            
 1     1 A. Jayson … male   United… USA         North… Married United States    
 2     9 Abdulla Al… male   United… ARE         Middl… Married United Arab Emir…
 3    10 Abdulla bi… male   United… ARE         Middl… <NA>    United Arab Emir…
 4    12 Abdulsamad… male   Nigeria NGA         Sub-S… Married Nigeria          
 5    13 Abhay Firo… male   India   IND         South… Married India            
 6    14 Abhay Soi   male   India   IND         South… <NA>    <NA>             
 7    16 Abigail Be… female United… USA         North… <NA>    <NA>             
 8    17 Abigail Jo… female United… USA         North… Married United States    
 9    18 Abilio dos… male   Brazil  BRA         Latin… Married Brazil           
10    20 Acharya Ba… male   India   IND         South… Single  India            
# ℹ 2,630 more rows
# ℹ 5 more variables: selfmade <chr>, `2020` <dbl>, `2021` <dbl>, `2022` <dbl>,
#   `2023` <dbl>
…
The tidyverse functions require data to be in what Hadley Wickham and collaborators call a tidy format. In tidy data, each variable is in a column, each observation is in a row, and each cell contains a single value (Wickham et al. 2019). It is, in other words, in a consistent long-format. If we want to be able to use all of the great features of dplyr and ggplot, then we need to transform our data into a tidy format.

5.8 Pivoting from Wide to Long

Fortunately, dplyr has some handy functions for this. Since we have data in a wide format and wish to go to a long format, we’ll need to use a function called pivot_longer(). There are three arguments we need to provide to pivot_longer().

First, in the cols = argument, we need to provide the columns we are trying to combine into a single variable. In our case, our net worth values are distributed across the `2020`, `2021`, `2022`, and `2023` columns, so we’ll put those in a vector and add them here. Next, in the names_to = argument, we need to identify where we want to put the names for each of those values (in other words, the titles for each of our former columns). Since each of those column names corresponds to a year, we’ll tell it to put them in a "year" column. Last, we need to specify a name for the variable holding all of the values that were stored across those columns. Since the values were net worth, we’ll call this new variable net_worth. We might also want to drop the rows which contain NA values for net worth, so we’ll add an optional fourth argument, values_drop_na =.

billionaires %>%
  pivot_longer(cols = c(`2020`, `2021`, `2022`, `2023`),
               names_to = "year",
               values_to = "net_worth",
               values_drop_na = TRUE)

# A tibble: 9,142 × 11
      id name        gender country countrycode region marital residence_country
   <dbl> <chr>       <chr>  <chr>   <chr>       <chr>  <chr>   <chr>            
 1     1 A. Jayson … male   United… USA         North… Married United States    
 2     1 A. Jayson … male   United… USA         North… Married United States    
 3     1 A. Jayson … male   United… USA         North… Married United States    
 4     9 Abdulla Al… male   United… ARE         Middl… Married United Arab Emir…
 5     9 Abdulla Al… male   United… ARE         Middl… Married United Arab Emir…
 6     9 Abdulla Al… male   United… ARE         Middl… Married United Arab Emir…
 7     9 Abdulla Al… male   United… ARE         Middl… Married United Arab Emir…
 8    10 Abdulla bi… male   United… ARE         Middl… <NA>    United Arab Emir…
 9    10 Abdulla bi… male   United… ARE         Middl… <NA>    United Arab Emir…
10    10 Abdulla bi… male   United… ARE         Middl… <NA>    United Arab Emir…
# ℹ 9,132 more rows
# ℹ 3 more variables: selfmade <chr>, year <chr>, net_worth <dbl>
…
#An alternative way:
#unique(bil_age$year)

There’s only one year and some missing values. Before we go ahead and merge, we should also check to make sure that there is only age value for each of the IDs. The code below will count the number of rows

bil_age %>%
  count(id) %>%
  filter(n > 1)

# A tibble: 59 × 2
      id     n
   <dbl> <int>
 1     1     4
 2     9     2
 3    12     5
 4    13     5
 5    14     2
 6    15     2
 7    16     2
 8    17     5
 9    18     5
10    19     2
# ℹ 49 more rows
…
The use of ggplot() above differs from the method you learned last chapter. In this case, we first save our base ggplot() layer to an object (arbitrarily named p here) and then we add layers to the object in a separate line of code. You’ll commonly see this in references elsewhere. Either style of writing your ggplot() code is fine. I tend to prefer the piped form from last chapter, because it allows you to add in your filters and do any other data manipulations in the same command.

5.10 Recoding variables

There is one more thing we might want to learn here: recoding. Recoding is useful when the categories within a data set aren’t quite appropriate for the way we want to analyze them.

Let’s say we want to compare the net worth of billionaires in our data set by marital status. For this, we could actually use the wide data. Let’s imagine that we don’t have our wide data in the first place. Could we get our long data into a wide format? Yes, using pivot_wider():

tidy_bil %>%
  pivot_wider(
    names_from = year,
    values_from = net_worth
  )

# A tibble: 5,040 × 14
      id name        gender country countrycode region marital residence_country
   <dbl> <chr>       <chr>  <chr>   <chr>       <chr>  <chr>   <chr>            
 1     1 A. Jayson … male   United… USA         North… Married United States    
 2     1 A. Jayson … male   United… USA         North… Married United States    
 3     9 Abdulla Al… male   United… ARE         Middl… Married United Arab Emir…
 4     9 Abdulla Al… male   United… ARE         Middl… Married United Arab Emir…
 5    10 Abdulla bi… male   United… ARE         Middl… <NA>    United Arab Emir…
 6    12 Abdulsamad… male   Nigeria NGA         Sub-S… Married Nigeria          
 7    12 Abdulsamad… male   Nigeria NGA         Sub-S… Married Nigeria          
 8    13 Abhay Firo… male   India   IND         South… Married India            
 9    13 Abhay Firo… male   India   IND         South… Married India            
10    14 Abhay Soi   male   India   IND         South… <NA>    <NA>             
# ℹ 5,030 more rows
# ℹ 6 more variables: selfmade <chr>, age <dbl>, `2021` <dbl>, `2022` <dbl>,
#   `2023` <dbl>, `2020` <dbl>
…
