Chapter 2 Working with Data in R | Statistical Programming for the Social Sciences Using R
…
Great, you know what a function is, you have the tidyverse installed, and you’ve seen that data can be contained in packages, which are easy to install and load.

2.3.1 Using Data from Packages

Let’s install and load another package, so that we can take a look at some more data.

install.packages('socviz')

library(socviz)

The socviz package accompanies a textbook called Data Visualization written by Kieran Healy, a Professor of Sociology at Duke University, and it contains some interesting datasets including election data from the 2016 U.S. presidential election. This dataset is stored in an object titled election. Once you have socviz installed and loaded, you can get a preview of its contents by entering the name of the object:

election

## # A tibble: 51 × 22
##    state     st     fips total_vote vote_margin winner party pct_margin r_points
##    <chr>     <chr> <dbl>      <dbl>       <dbl> <chr>  <chr>      <dbl>    <dbl>
##  1 Alabama   AL        1    2123372      588708 Trump  Repu…     0.277     27.7 
##  2 Alaska    AK        2     318608       46933 Trump  Repu…     0.147     14.7 
##  3 Arizona   AZ        4    2604657       91234 Trump  Repu…     0.035      3.5 
##  4 Arkansas  AR        5    1130635      304378 Trump  Repu…     0.269     26.9 
##  5 Californ… CA        6   14237893     4269978 Clint… Demo…     0.300    -30.0 
##  6 Colorado  CO        8    2780247      136386 Clint… Demo…     0.0491    -4.91
##  7 Connecti… CT        9    1644920      224357 Clint… Demo…     0.136    -13.6 
##  8 Delaware  DE       10     443814       50476 Clint… Demo…     0.114    -11.4 
##  9 District… DC       11     311268      270107 Clint… Demo…     0.868    -86.8 
## 10 Florida   FL       12    9502747      112911 Trump  Repu…     0.0119     1.19
## # ℹ 41 more rows
## # ℹ 13 more variables: d_points <dbl>, pct_clinton <dbl>, pct_trump <dbl>,
## #   pct_johnson <dbl>, pct_other <dbl>, clinton_vote <dbl>, trump_vote <dbl>,
## #   johnson_vote <dbl>, other_vote <dbl>, ev_dem <dbl>, ev_rep <dbl>,
## #   ev_oth <dbl>, census <chr>
…
